{ "backgroundcolor":"#aaaaff",
 "height":640,
 "layers":[
        {
         "draworder":"topdown",
         "height":0,
         "name":"decor",
         "objects":[
                {
                 "height":164,
                 "id":1,
                 "name":"decor",
                 "properties":
                    {
                     "style":"0"
                    },
                 "rotation":0,
                 "type":"decor",
                 "visible":true,
                 "width":444,
                 "x":22,
                 "y":10
                }, 
                {
                 "height":132,
                 "id":7,
                 "name":"decor",
                 "properties":
                    {
                     "style":"1"
                    },
                 "rotation":0,
                 "type":"decor",
                 "visible":true,
                 "width":192,
                 "x":101,
                 "y":188
                }, 
                {
                 "height":234,
                 "id":12,
                 "name":"decor",
                 "properties":
                    {
                     "style":"2"
                    },
                 "rotation":0,
                 "type":"decor",
                 "visible":true,
                 "width":762,
                 "x":20,
                 "y":434
                }, 
                {
                 "height":36,
                 "id":13,
                 "name":"decor",
                 "properties":
                    {
                     "style":"3"
                    },
                 "rotation":0,
                 "type":"decor",
                 "visible":true,
                 "width":36,
                 "x":272,
                 "y":364
                }, 
                {
                 "height":152,
                 "id":14,
                 "name":"decor",
                 "properties":
                    {
                     "style":"4"
                    },
                 "rotation":0,
                 "type":"decor",
                 "visible":true,
                 "width":694,
                 "x":508,
                 "y":10
                }, 
                {
                 "height":58,
                 "id":15,
                 "name":"decor",
                 "properties":
                    {
                     "style":"5"
                    },
                 "rotation":0,
                 "type":"decor",
                 "visible":true,
                 "width":100,
                 "x":426,
                 "y":276
                }, 
                {
                 "height":134,
                 "id":16,
                 "name":"decor",
                 "properties":
                    {
                     "style":"6"
                    },
                 "rotation":0,
                 "type":"decor",
                 "visible":true,
                 "width":370,
                 "x":378,
                 "y":358
                }, 
                {
                 "height":94,
                 "id":17,
                 "name":"decor",
                 "properties":
                    {
                     "style":"7"
                    },
                 "rotation":0,
                 "type":"decor",
                 "visible":true,
                 "width":118,
                 "x":884,
                 "y":128
                }, 
                {
                 "height":108,
                 "id":18,
                 "name":"decor",
                 "properties":
                    {
                     "style":"8"
                    },
                 "rotation":0,
                 "type":"decor",
                 "visible":true,
                 "width":324,
                 "x":900,
                 "y":220
                }, 
                {
                 "height":106,
                 "id":19,
                 "name":"decor",
                 "properties":
                    {
                     "style":"9"
                    },
                 "rotation":0,
                 "type":"decor",
                 "visible":true,
                 "width":200,
                 "x":824,
                 "y":396
                }, 
                {
                 "height":58,
                 "id":20,
                 "name":"decor",
                 "properties":
                    {
                     "style":"10"
                    },
                 "rotation":0,
                 "type":"decor",
                 "visible":true,
                 "width":158,
                 "x":886,
                 "y":568
                }, 
                {
                 "height":324,
                 "id":21,
                 "name":"decor",
                 "properties":
                    {
                     "style":"11"
                    },
                 "rotation":0,
                 "type":"decor",
                 "visible":true,
                 "width":348,
                 "x":1034,
                 "y":332
                }, 
                {
                 "height":94,
                 "id":22,
                 "name":"decor",
                 "properties":
                    {
                     "style":"12"
                    },
                 "rotation":0,
                 "type":"decor",
                 "visible":true,
                 "width":118,
                 "x":1046,
                 "y":500
                }, 
                {
                 "height":158,
                 "id":23,
                 "name":"decor",
                 "properties":
                    {
                     "style":"13"
                    },
                 "rotation":0,
                 "type":"decor",
                 "visible":true,
                 "width":260,
                 "x":1180,
                 "y":16
                }, 
                {
                 "height":156,
                 "id":24,
                 "name":"decor",
                 "properties":
                    {
                     "style":"15"
                    },
                 "rotation":0,
                 "type":"decor",
                 "visible":true,
                 "width":268,
                 "x":1412,
                 "y":318
                }, 
                {
                 "height":176,
                 "id":25,
                 "name":"decor",
                 "properties":
                    {
                     "style":"16"
                    },
                 "rotation":0,
                 "type":"decor",
                 "visible":true,
                 "width":242,
                 "x":1312,
                 "y":444
                }, 
                {
                 "height":120,
                 "id":26,
                 "name":"decor",
                 "properties":
                    {
                     "style":"17"
                    },
                 "rotation":0,
                 "type":"decor",
                 "visible":true,
                 "width":204,
                 "x":1554,
                 "y":112
                }, 
                {
                 "height":124,
                 "id":27,
                 "name":"decor",
                 "properties":
                    {
                     "style":"18"
                    },
                 "rotation":0,
                 "type":"decor",
                 "visible":true,
                 "width":164,
                 "x":1570,
                 "y":488
                }, 
                {
                 "height":58,
                 "id":28,
                 "name":"decor",
                 "properties":
                    {
                     "style":"19"
                    },
                 "rotation":0,
                 "type":"decor",
                 "visible":true,
                 "width":84,
                 "x":1786,
                 "y":82
                }, 
                {
                 "height":188,
                 "id":29,
                 "name":"decor",
                 "properties":
                    {
                     "style":"20"
                    },
                 "rotation":0,
                 "type":"decor",
                 "visible":true,
                 "width":192,
                 "x":1802,
                 "y":221
                }, 
                {
                 "height":178,
                 "id":30,
                 "name":"decor",
                 "properties":
                    {
                     "style":"21"
                    },
                 "rotation":0,
                 "type":"decor",
                 "visible":true,
                 "width":248,
                 "x":1868,
                 "y":425
                }, 
                {
                 "height":60,
                 "id":31,
                 "name":"decor",
                 "properties":
                    {
                     "style":"22"
                    },
                 "rotation":0,
                 "type":"decor",
                 "visible":true,
                 "width":100,
                 "x":2046,
                 "y":106
                }, 
                {
                 "height":148,
                 "id":32,
                 "name":"decor",
                 "properties":
                    {
                     "style":"14"
                    },
                 "rotation":0,
                 "type":"decor",
                 "visible":true,
                 "width":240,
                 "x":1269,
                 "y":172
                }, 
                {
                 "height":36,
                 "id":33,
                 "name":"decor",
                 "properties":
                    {
                     "style":"3"
                    },
                 "rotation":0,
                 "type":"decor",
                 "visible":true,
                 "width":36,
                 "x":812,
                 "y":564
                }, 
                {
                 "height":36,
                 "id":34,
                 "name":"decor",
                 "properties":
                    {
                     "style":"3"
                    },
                 "rotation":0,
                 "type":"decor",
                 "visible":true,
                 "width":36,
                 "x":814,
                 "y":312
                }, 
                {
                 "height":36,
                 "id":35,
                 "name":"decor",
                 "properties":
                    {
                     "style":"3"
                    },
                 "rotation":0,
                 "type":"decor",
                 "visible":true,
                 "width":36,
                 "x":1292,
                 "y":364
                }, 
                {
                 "height":36,
                 "id":36,
                 "name":"decor",
                 "properties":
                    {
                     "style":"3"
                    },
                 "rotation":0,
                 "type":"decor",
                 "visible":true,
                 "width":36,
                 "x":1792,
                 "y":504
                }],
         "opacity":1,
         "type":"objectgroup",
         "visible":false,
         "width":0,
         "x":0,
         "y":0
        }, 
        {
         "draworder":"topdown",
         "height":640,
         "name":"char",
         "objects":[
                {
                 "height":46,
                 "id":37,
                 "name":"ghost",
                 "properties":
                    {
                     "move":"742,210; 814,206"
                    },
                 "rotation":0,
                 "type":"char",
                 "visible":true,
                 "width":46,
                 "x":742,
                 "y":210
                }, 
                {
                 "height":46,
                 "id":38,
                 "name":"ghost",
                 "properties":
                    {
                     "move":"799,134; 848,131"
                    },
                 "rotation":0,
                 "type":"char",
                 "visible":true,
                 "width":46,
                 "x":799,
                 "y":134
                }, 
                {
                 "height":14,
                 "id":39,
                 "name":"spider",
                 "properties":
                    {
                     "style":"0"
                    },
                 "rotation":0,
                 "type":"char",
                 "visible":true,
                 "width":18,
                 "x":610,
                 "y":228
                }, 
                {
                 "height":14,
                 "id":40,
                 "name":"spider",
                 "properties":
                    {
                     "style":"1"
                    },
                 "rotation":0,
                 "type":"char",
                 "visible":true,
                 "width":18,
                 "x":552,
                 "y":276
                }, 
                {
                 "height":14,
                 "id":41,
                 "name":"spider",
                 "properties":
                    {
                     "style":"0"
                    },
                 "rotation":0,
                 "type":"char",
                 "visible":true,
                 "width":18,
                 "x":620,
                 "y":260
                }, 
                {
                 "height":14,
                 "id":42,
                 "name":"spider",
                 "properties":
                    {
                     "style":"1"
                    },
                 "rotation":0,
                 "type":"char",
                 "visible":true,
                 "width":18,
                 "x":660,
                 "y":238
                }, 
                {
                 "height":14,
                 "id":43,
                 "name":"spider",
                 "properties":
                    {
                     "style":"0"
                    },
                 "rotation":0,
                 "type":"char",
                 "visible":true,
                 "width":18,
                 "x":705,
                 "y":262
                }, 
                {
                 "height":14,
                 "id":44,
                 "name":"spider",
                 "properties":
                    {
                     "style":"0"
                    },
                 "rotation":0,
                 "type":"char",
                 "visible":true,
                 "width":18,
                 "x":407,
                 "y":274
                }, 
                {
                 "height":28,
                 "id":45,
                 "name":"bat",
                 "properties":
                    {

                    },
                 "rotation":0,
                 "type":"char",
                 "visible":true,
                 "width":30,
                 "x":246,
                 "y":278
                }],
         "opacity":1,
         "type":"objectgroup",
         "visible":false,
         "width":2312,
         "x":0,
         "y":0
        }, 
        {
         "draworder":"topdown",
         "height":640,
         "name":"levels",
         "objects":[
                {
                 "height":0,
                 "id":96,
                 "name":"level",
                 "properties":
                    {
                     "number":"101,370; 217,370; 243,440; 349,444; 387,516; 507,516; 621,514; 691,452; 809,454; 847,524; 965,524; 1069, 462;  997,372; 895,372; 785,372; 725,302; 599,300; 529,360; 415,360; 357,298; 421,238; 529,238; 601,192; 699,192; 801,192; 871,252; 985,252; 1051,194; 1147,194; 1231,258; 1235,362; 1309,436; 1421,438; 1501,514; 1621,514; 1711,436; 1711,344; 1711,258; 1591,258; 1511,178; 1591,98; 1711,98; 1811,178; 1931,178; 2031,238; 2131,238; 2131,338; 2131,438; 2251,518"
                    },
                 "rotation":0,
                 "type":"level",
                 "visible":true,
                 "width":0,
                 "x":101,
                 "y":370
                }],
         "opacity":1,
         "type":"objectgroup",
         "visible":true,
         "width":2312,
         "x":0,
         "y":0
        }],
 "nextobjectid":99,
 "orientation":"orthogonal",
 "properties":
    {

    },
 "renderorder":"right-down",
 "tileheight":1,
 "tilesets":[],
 "tilewidth":1,
 "version":1,
 "width":2312
}